\relax 
\@writefile{toc}{\contentsline {section}{\numberline {I}Introduction}{1}{}\protected@file@percent }
\@writefile{lof}{\contentsline {figure}{\numberline {1}{\ignorespaces Capture of a hyperspectral image, and a hypercube}}{1}{}\protected@file@percent }
\newlabel{img:1}{{1}{1}}
\@writefile{toc}{\contentsline {subsection}{\numberline {\mbox  {I-A}}The data}{1}{}\protected@file@percent }
\@writefile{lof}{\contentsline {figure}{\numberline {2}{\ignorespaces Sample band of Indian Pines, and the groundtruth for classification}}{1}{}\protected@file@percent }
\newlabel{img:ip}{{2}{1}}
\@writefile{toc}{\contentsline {subsection}{\numberline {\mbox  {I-B}}The goal}{2}{}\protected@file@percent }
\@writefile{lot}{\contentsline {table}{\numberline {I}{\ignorespaces Groundtruth classes and their sample numbers}}{2}{}\protected@file@percent }
\newlabel{tab:gtsamples}{{I}{2}}
\@writefile{toc}{\contentsline {subsection}{\numberline {\mbox  {I-C}}The means}{2}{}\protected@file@percent }
\@writefile{toc}{\contentsline {subsubsection}{\numberline {\mbox  {I-C}1}Spectral Support Vector Classifier (SVC)}{2}{}\protected@file@percent }
\@writefile{toc}{\contentsline {subsubsection}{\numberline {\mbox  {I-C}2}Spectral Neural Network}{2}{}\protected@file@percent }
\@writefile{toc}{\contentsline {subsubsection}{\numberline {\mbox  {I-C}3}Spatial-Spectral Convolutional Neural Network}{2}{}\protected@file@percent }
\@writefile{toc}{\contentsline {section}{\numberline {II}Methodology}{2}{}\protected@file@percent }
\@writefile{lof}{\contentsline {figure}{\numberline {3}{\ignorespaces Spectral neural network architecture}}{2}{}\protected@file@percent }
\newlabel{fig:fc}{{3}{2}}
\@writefile{toc}{\contentsline {subsection}{\numberline {\mbox  {II-A}}SVC}{2}{}\protected@file@percent }
\@writefile{toc}{\contentsline {subsection}{\numberline {\mbox  {II-B}}Spectral Neural Network}{2}{}\protected@file@percent }
\@writefile{toc}{\contentsline {subsection}{\numberline {\mbox  {II-C}}Spatial-Spectral Convolutional Neural Network}{2}{}\protected@file@percent }
\bibcite{bib:grahn}{1}
\bibcite{bib:pu}{2}
\bibcite{bib:chang}{3}
\bibcite{bib:art1}{4}
\bibcite{bib:art2}{5}
\bibcite{bib:ksiazkasieci}{6}
\@writefile{lof}{\contentsline {figure}{\numberline {4}{\ignorespaces Spatial-Spectral convolutional neural network architecture}}{3}{}\protected@file@percent }
\newlabel{fig:conv}{{4}{3}}
\@writefile{toc}{\contentsline {section}{\numberline {III}Results}{3}{}\protected@file@percent }
\@writefile{toc}{\contentsline {section}{\numberline {IV}Conclusion}{3}{}\protected@file@percent }
\@writefile{toc}{\contentsline {section}{References}{3}{}\protected@file@percent }
\@writefile{lof}{\contentsline {figure}{\numberline {5}{\ignorespaces Ground truth and predictions.}}{4}{}\protected@file@percent }
\@writefile{lof}{\contentsline {subfigure}{\numberline{(a)}{\ignorespaces {Ground Truth}}}{4}{}\protected@file@percent }
\@writefile{lof}{\contentsline {subfigure}{\numberline{(b)}{\ignorespaces {SVC, Acc = 72.43\%}}}{4}{}\protected@file@percent }
\@writefile{lof}{\contentsline {subfigure}{\numberline{(c)}{\ignorespaces {Spectral NN, Acc= 80.31\%}}}{4}{}\protected@file@percent }
\@writefile{lof}{\contentsline {subfigure}{\numberline{(d)}{\ignorespaces {Spacial-Spectral CNN, Acc=86.37\%}}}{4}{}\protected@file@percent }
\newlabel{fig:res}{{5}{4}}
\gdef \@abspage@last{4}
