# Fdb version 3
["pdflatex"] 1631367375 "test.pdf" "test.pdf" "test" 1631367375
  "/usr/share/texmf-dist/web2c/texmf.cnf" 1617738065 39911 2da6c67557ec033436fe5418a70a8a61 ""
  "/var/lib/texmf/web2c/pdftex/pdflatex.fmt" 1621933901 2812670 b0f0312a56563676b01d9d4c2129d184 ""
  "test.aux" 1631367375 8 a94a2480d3289e625eea47cd1b285758 ""
  "test.pdf" 1631366985 44776 4a4974cbf37780d9f1faa200612c291f "pdflatex"
  (generated)
  "test.log"
  "test.pdf"
